<svg height="16mm" viewBox="0 0 50 16" width="50mm" xmlns="http://www.w3.org/2000/svg">
  <g stroke-width=".25" transform="translate(-.220833 .02)">
    <path d="m2.835 12.415h1.14c-1.515-2.055-2.115-4.395-2.115-6.585 0-2.31.675-4.44 1.665-5.85h-1.125c-1.11 1.755-1.65 3.78-1.65 5.82 0 2.325.705 4.665 2.085 6.615z"/>
    <path d="m5.8899886 10.11h.76c-1.01-1.37-1.41-2.93-1.41-4.39 0-1.54.45-2.96 1.11-3.9h-.75c-.74 1.17-1.1 2.52-1.1 3.88 0 1.55.47 3.11 1.39 4.41z"/>
    <path d="m8.1999809 7.76c0 1.03.22 1.24 1.17 1.24h.37v-.74h-.19c-.47 0-.51-.13-.51-.64v-5.29h-.84z"/>
    <path d="m12.699965 9.12c.93 0 1.61-.41 1.97-.99l-.81-.24c-.23.3-.6.49-1.16.49-.61 0-1.49-.38-1.53-1.63h3.82c.1-1.42-.73-2.79-2.31-2.79-1.36 0-2.41 1-2.41 2.57 0 1.46.87 2.59 2.43 2.59zm-.02-4.44c.88 0 1.41.7 1.42 1.4h-2.92c.08-1 .75-1.4 1.5-1.4z"/>
    <path d="m18.389948 7.88c.33.85 1.22 1.24 2.08 1.24 1.03 0 2.02-.54 2.02-1.48 0-2.11-3.15-1.12-3.15-2.32 0-.43.49-.66 1-.66.47 0 .96.19 1.13.59l.79-.29c-.3-.69-1.08-1.01-1.86-1.01-.96 0-1.91.49-1.91 1.38 0 1.98 3.15.98 3.15 2.34 0 .45-.58.74-1.17.74-.55 0-1.12-.24-1.27-.83z"/>
    <path d="m23.289936 6.15c0 2.02 1.21 3.47 3.13 3.47 1.93 0 3.14-1.45 3.14-3.47 0-2.01-1.21-3.45-3.14-3.45-1.92 0-3.13 1.44-3.13 3.45zm.96 0c0-1.72.96-2.66 2.17-2.66 1.22 0 2.18.94 2.18 2.66 0 1.73-.96 2.68-2.18 2.68-1.21 0-2.17-.95-2.17-2.68z"/>
    <path d="m30.759929 4.04v4.96h.84v-2.69c0-1.06.5-1.63 1.31-1.63.96 0 1.09.67 1.09 1.43v2.89h.84v-3.14c0-1.13-.44-1.9-1.64-1.9-.84 0-1.32.36-1.6.83l-.22-.75z"/>
    <path d="m39.249912 9h1.05l2.78-5.87v-.81h-4.61v.81h3.68z"/>
    <path d="m43.769895 10.11h.77c.91-1.3 1.38-2.86 1.38-4.42 0-1.35-.35-2.7-1.09-3.87h-.75c.66.94 1.11 2.36 1.11 3.89 0 1.46-.41 3.03-1.42 4.4z"/>
    <path d="m46.444888 12.415h1.155c1.365-1.95 2.07-4.29 2.07-6.63 0-2.025-.525-4.05-1.635-5.805h-1.125c.99 1.41 1.665 3.54 1.665 5.835 0 2.19-.615 4.545-2.13 6.6z"/>
  </g>
  <g stroke-width=".264583">
    <path d="m8.9499646 13.714243q0-.361735-.1501202-.560689-.1483115-.198955-.4178043-.198955-.2676842 0-.4178043.198955-.1483115.198954-.1483115.560689 0 .359927.1483115.558881.1501201.198955.4178043.198955.2694928 0 .4178043-.198955.1501202-.198954.1501202-.558881zm.3327965.784966q0 .517282-.2297019.768688-.229702.253214-.7035753.253214-.1754416 0-.3309878-.02713-.1555462-.02532-.302049-.07958v-.323753q.1465028.07958.2893882.117564.1428855.03798.291197.03798.3273705 0 .4901514-.171825.1627809-.170015.1627809-.515473v-.164588q-.1030946.179059-.2640668.267684-.1609722.08863-.3852482.08863-.3725874 0-.6004806-.283962-.2278933-.283962-.2278933-.75241 0-.470256.2278933-.754218.2278932-.283962.6004806-.283962.224276 0 .3852482.08863.1609722.08863.2640668.267684v-.307475h.3327965z"/>
    <path d="m10.888866 13.73233q-.403335 0-.558881.09224-.155546.09224-.155546.314709 0 .177251.115755.282154.117564.103095.318327.103095.276728 0 .443126-.195338.168207-.197145.168207-.522707v-.07416zm.663784-.137459v1.155744h-.332796v-.307475q-.113947.184485-.283962.27311-.170016.08682-.415996.08682-.311092 0-.495577-.173633-.1826768-.175442-.1826768-.468448 0-.341839.2278928-.515472.229702-.173633.68368-.173633h.466639v-.03256q0-.229701-.151929-.3545-.15012-.126608-.42323-.126608-.173633 0-.338223.0416-.164589.0416-.3165183.124799v-.307475q.1826763-.07054.3545003-.104904.171825-.03617.334606-.03617.439508 0 .656549.227893.217041.227893.217041.690915z"/>
    <path d="m12.238139 11.936314h.332796v2.814301h-.332796z"/>
    <path d="m14.999988 13.654557v.162781h-1.53014q.0217.343648.206189.524516.186294.179059.517282.179059.191719 0 .370778-.04702.180868-.04703.358118-.141077v.31471q-.179059.07596-.367161.115755-.188102.03979-.381631.03979-.484725 0-.768688-.282154-.282153-.282153-.282153-.763261 0-.497387.267684-.788583.269493-.293006.725279-.293006.408761 0 .645698.264067.238745.262258.238745.714427zm-.332796-.09767q-.0036-.27311-.153738-.435891-.148311-.162781-.394291-.162781-.278536 0-.446743.157355-.166399.157355-.19172.443126z"/>
    <path d="m16.72004 13.03599q-.05607-.03256-.12299-.04703-.06511-.01628-.144694-.01628-.282154 0-.434083.184485-.15012.182676-.15012.526325v1.067119h-.334605v-2.025718h.334605v.31471q.104903-.184485.27311-.27311.168207-.09043.408761-.09043.03437 0 .07597.0054.0416.0036.09224.01266z"/>
    <path d="m17.069114 12.724897h.332797v2.025718h-.332797zm0-.788583h.332797v.421422h-.332797z"/>
    <path d="m19.830963 13.654557v.162781h-1.53014q.0217.343648.206189.524516.186294.179059.517282.179059.191719 0 .370778-.04702.180868-.04703.358118-.141077v.31471q-.179059.07596-.367161.115755-.188102.03979-.381631.03979-.484725 0-.768687-.282154-.282154-.282153-.282154-.763261 0-.497387.267684-.788583.269493-.293006.72528-.293006.40876 0 .645697.264067.238745.262258.238745.714427zm-.332796-.09767q-.0036-.27311-.153738-.435891-.148311-.162781-.394291-.162781-.278536 0-.446743.157355-.166399.157355-.19172.443126z"/>
    <path d="m22.887628 13.032372v-1.096058h.332796v2.814301h-.332796v-.303858q-.104904.180868-.265876.269493-.159163.08682-.383439.08682-.367162 0-.598672-.293006-.229702-.293006-.229702-.770496 0-.477491.229702-.770496.23151-.293006.598672-.293006.224276 0 .383439.08863.160972.08682.265876.267684zm-1.134041.707193q0 .367161.150121.576968.151928.207998.415995.207998.264067 0 .415996-.207998.151929-.209807.151929-.576968 0-.367162-.151929-.575159-.151929-.209807-.415996-.209807-.264067 0-.415995.209807-.150121.207997-.150121.575159z"/>
    <path d="m24.220622 12.050261v1.003815h-.307475v-1.003815z"/>
    <path d="m25.844814 13.73233q-.403335 0-.558881.09224-.155546.09224-.155546.314709 0 .177251.115755.282154.117564.103095.318327.103095.276728 0 .443126-.195338.168207-.197145.168207-.522707v-.07416zm.663785-.137459v1.155744h-.332797v-.307475q-.113946.184485-.283962.27311-.170016.08682-.415996.08682-.311092 0-.495577-.173633-.182676-.175442-.182676-.468448 0-.341839.227893-.515472.229702-.173633.68368-.173633h.466638v-.03256q0-.229701-.151929-.3545-.15012-.126608-.42323-.126608-.173633 0-.338223.0416-.164589.0416-.316518.124799v-.307475q.182676-.07054.354501-.104904.171824-.03617.334605-.03617.439508 0 .65655.227893.217041.227893.217041.690915z"/>
    <path d="m28.367919 13.03599q-.05607-.03256-.12299-.04703-.06511-.01628-.144694-.01628-.282154 0-.434083.184485-.15012.182676-.15012.526325v1.067119h-.334605v-2.025718h.334605v.31471q.104903-.184485.27311-.27311.168207-.09043.408761-.09043.03437 0 .07597.0054.0416.0036.09224.01266z"/>
    <path d="m29.046172 12.149738v.575159h.685489v.258641h-.685489v1.099675q0 .247789.06692.318328.06873.07054.276728.07054h.34184v.278536h-.34184q-.385248 0-.531751-.142885-.146503-.144694-.146503-.524517v-1.099675h-.244171v-.258641h.244171v-.575159z"/>
    <path d="m32.638204 12.784583v.31471q-.141076-.07235-.293005-.10852-.151929-.03617-.31471-.03617-.247789 0-.372587.07597-.12299.07596-.12299.227893 0 .115755.08863.182676.08863.06511.356309.124799l.113947.02532q.3545.07597.502812.215233.15012.137459.15012.385248 0 .282154-.224276.446743-.222467.16459-.613141.16459-.162781 0-.340032-.03256-.175441-.03075-.370778-.09405v-.343648q.184485.09586.363544.144694.179059.04703.3545.04703.235128 0 .361736-.07958.126607-.08139.126607-.227894 0-.13565-.09224-.207997-.09043-.07235-.399718-.139268l-.115755-.02713q-.309284-.06511-.446743-.198954-.13746-.135651-.13746-.370779 0-.285771.202572-.441317.202572-.155546.575159-.155546.184485 0 .347266.02713.162781.02713.30024.08139z"/>
    <path d="m34.061632 12.958216q-.267684 0-.42323.209807-.155546.207998-.155546.571542 0 .363544.153737.57335.155546.207998.425039.207998.265876 0 .421422-.209806.155546-.209807.155546-.571542 0-.359927-.155546-.569733-.155546-.211616-.421422-.211616zm0-.282153q.434083 0 .681871.282153.247789.282154.247789.781349 0 .497386-.247789.781348-.247788.282154-.681871.282154-.435891 0-.68368-.282154-.24598-.283962-.24598-.781348 0-.499195.24598-.781349.247789-.282153.68368-.282153z"/>
    <path d="m37.226816 13.52795v1.222665h-.332796v-1.211813q0-.28758-.112138-.430465-.112138-.142886-.336414-.142886-.269493 0-.425039.171824-.155547.171825-.155547.468448v1.144892h-.334605v-2.025718h.334605v.31471q.119373-.182676.280345-.27311.162781-.09043.374396-.09043.349075 0 .528134.217041.179059.215233.179059.634846z"/>
    <path d="m38.675568 12.958216q-.267685 0-.423231.209807-.155546.207998-.155546.571542 0 .363544.153738.57335.155546.207998.425039.207998.265875 0 .421421-.209806.155546-.209807.155546-.571542 0-.359927-.155546-.569733-.155546-.211616-.421421-.211616zm0-.282153q.434082 0 .681871.282153.247788.282154.247788.781349 0 .497386-.247788.781348-.247789.282154-.681871.282154-.435892 0-.68368-.282154-.24598-.283962-.24598-.781348 0-.499195.24598-.781349.247788-.282153.68368-.282153z"/>
    <path d="m41.330703 13.03599q-.05607-.03256-.12299-.04703-.06511-.01628-.144694-.01628-.282154 0-.434083.184485-.15012.182676-.15012.526325v1.067119h-.334605v-2.025718h.334605v.31471q.104903-.184485.27311-.27311.168207-.09043.408761-.09043.03436 0 .07596.0054.0416.0036.09224.01266z"/>
    <path d="m43.331101 13.654557v.162781h-1.530141q.0217.343648.206189.524516.186294.179059.517282.179059.19172 0 .370779-.04702.180867-.04703.358118-.141077v.31471q-.179059.07596-.367162.115755-.188102.03979-.381631.03979-.484725 0-.768687-.282154-.282154-.282153-.282154-.763261 0-.497387.267684-.788583.269493-.293006.72528-.293006.408761 0 .645697.264067.238746.262258.238746.714427zm-.332797-.09767q-.0036-.27311-.153737-.435891-.148312-.162781-.394292-.162781-.278536 0-.446743.157355-.166398.157355-.19172.443126z"/>
  </g>
</svg>
